AEMET stations — aemet_stations • climaemet
…
    See also

    Other aemet_api_data: 
aemet_daily_clim(),
aemet_extremes_clim(),
aemet_last_obs(),
aemet_monthly,
aemet_normal

    Examples

library(tibble)
stations <- aemet_stations()
stations
#> # A tibble: 291 × 7
#>    indicativo indsinop nombre                 provincia altitud longitud latitud
#>    <chr>      <chr>    <chr>                  <chr>       <dbl>    <dbl>   <dbl>
#>  1 0252D      "08186"  ARENYS DE MAR          BARCELONA      74     2.54    41.6
#>  2 0076       "08181"  BARCELONA AEROPUERTO   BARCELONA       4     2.07    41.3
#>  3 0200E      ""       BARCELONA, FABRA       BARCELONA     408     2.12    41.4
#>  4 0201D      "08180"  BARCELONA              BARCELONA       6     2.2     41.4
#>  5 0149X      "08174"  MANRESA                BARCELONA     291     1.84    41.7
#>  6 0229I      "08192"  SABADELL AEROPUERTO    BARCELONA     146     2.10    41.5
#>  7 0255B      "08188"  SANTA SUSANNA          BARCELONA      40     2.70    41.7
#>  8 0367       "08184"  GIRONA AEROPUERTO      GIRONA        143     2.76    41.9
#>  9 0370B      ""       GIRONA, ANTIC INSTITUT GIRONA         95     2.83    42.0
#> 10 0372C      "08120"  PORQUERES              GIRONA        157     2.76    42.1
#> # … with 281 more rows
…
