Client tool for AEMET API — get_data_aemet • climaemet
…
    See also

    Some examples on how to use these functions on
vignette("extending-climaemet").

    Examples

# Run this example only if AEMET_API_KEY is detected

url <- "/api/valores/climatologicos/inventarioestaciones/todasestaciones"

get_data_aemet(url)
#> # A tibble: 291 × 7
#>    latitud provincia     altitud indicativo nombre             indsinop longitud
#>    <chr>   <chr>         <chr>   <chr>      <chr>              <chr>    <chr>   
#>  1 394924N ILLES BALEARS 490     B013X      "ESCORCA, LLUC"    08304    025309E 
#>  2 393319N ILLES BALEARS 3       B228       "PALMA, PUERTO"    08301    023731E 
#>  3 394406N ILLES BALEARS 1030    B248       "SIERRA DE ALFABI… 08303    024247E 
#>  4 393339N ILLES BALEARS 8       B278       "PALMA DE MALLORC… 08306    024412E 
#>  5 393118N ILLES BALEARS 120     B346X      "PORRERES"         08310    030109E 
#>  6 392452N ILLES BALEARS 17      B434X      "PORTOCOLOM  "     08309    031618E 
#>  7 394300N ILLES BALEARS 57      B569X      "CAPDEPERA"        08311    032841E 
#>  8 394457N ILLES BALEARS 40      B691Y      "SA POBLA"         08312    030100E 
#>  9 395117N ILLES BALEARS 91      B893       "MENORCA, AEROPUE… 08314    041256E 
#> 10 385235N ILLES BALEARS 6       B954       "IBIZA, AEROPUERT… 08373    012304E 
#> # ℹ 281 more rows
…
